Word,Type,Description,Example
Informal,Adjective,"ไม่เป็นทางการ,ไม่เคร่งครัด",He paid us an informal visit
Yield,Noun,การยินยอม,This coefficient used to determine the yield value
Yield,Verb,ให้ผลผลิต,This field yields abundantly
AW,Interjection,คำอุทานแสดงการคัดค้าน,"AW ,I think you were wrong !"
Propaganda,Noun,ข้อมูลประชาสัมพันธ์,Propaganda a committee of Roman cardinals responsible for the mission
Cost,Noun,ค่าใช้จ่าย,He recording all the cost
Cost,Verb,มีมูลค่า, This can cost a big problem 
Vacate,Verb,"เอาออก,ย้ายออก",They vacated the house yesterday
Terminate,Verb,"ยุติ,สิ้นสุด",We terminated the contract
Juggernaut,Noun,รูปบูชาของพระกฤษณะ,Juggernaut has a huge and overwhelming force
Damaging,Noun,การทำร้าย,The insurance company will pay for the damage to my car
Damaging,Verb,ทำความเสียหาย,Dire structure damaged by natural creep
Foliage,Noun,ใบพืช,Foliage plant leaves collectively
